Day-4(Quantities) – Anusha’s_Blog
…
The following object is masked from 'package:mosaic':

    n_missing

library(crosstable)

Attaching package: 'crosstable'

The following object is masked from 'package:purrr':

    compact

diamonds

# A tibble: 53,940 × 10
   carat cut       color clarity depth table price     x     y     z
   <dbl> <ord>     <ord> <ord>   <dbl> <dbl> <int> <dbl> <dbl> <dbl>
 1  0.23 Ideal     E     SI2      61.5    55   326  3.95  3.98  2.43
 2  0.21 Premium   E     SI1      59.8    61   326  3.89  3.84  2.31
 3  0.23 Good      E     VS1      56.9    65   327  4.05  4.07  2.31
 4  0.29 Premium   I     VS2      62.4    58   334  4.2   4.23  2.63
 5  0.31 Good      J     SI2      63.3    58   335  4.34  4.35  2.75
 6  0.24 Very Good J     VVS2     62.8    57   336  3.94  3.96  2.48
 7  0.24 Very Good I     VVS1     62.3    57   336  3.95  3.98  2.47
 8  0.26 Very Good H     SI1      61.9    55   337  4.07  4.11  2.53
 9  0.22 Fair      E     VS2      65.1    61   337  3.87  3.78  2.49
10  0.23 Very Good H     VS1      59.4    61   338  4     4.05  2.39
# ℹ 53,930 more rows
…
Questions

Max.Races and participants

Which countries host the maximum number of races? Which countries send the maximum number of participants??

race_df %>%
  count(country) %>%
  arrange(desc(n))

# A tibble: 61 × 2
   country            n
   <chr>          <int>
 1 United States    438
 2 United Kingdom   110
 3 France            56
 4 Australia         46
 5 Sweden            46
 6 China             45
 7 Canada            32
 8 Spain             27
 9 Japan             24
10 Poland            23
# ℹ 51 more rows

rank_df %>%
  count(nationality) %>%
  arrange(desc(n))

# A tibble: 133 × 2
   nationality     n
   <chr>       <int>
 1 USA         47259
 2 FRA         28905
 3 GBR         11076
 4 JPN          6729
 5 ESP          5478
 6 CHN          4744
 7 CAN          2822
 8 ITA          2794
 9 SWE          2293
10 AUS          1683
# ℹ 123 more rows

Max. Winners

Which countries have the maximum number of winners (top 3 ranks)?

rank_df %>%
  filter(rank %in% c(1, 2, 3)) %>%
  count(nationality) %>%
  arrange(desc(n))

# A tibble: 69 × 2
   nationality     n
   <chr>       <int>
 1 USA          1240
 2 GBR           347
 3 FRA           210
 4 AUS           140
 5 CAN           132
 6 CHN           128
 7 SWE           124
 8 ESP           113
 9 JPN            94
10 ITA            79
# ℹ 59 more rows
…
race_df %>%
  filter(distance == 0)

# A tibble: 74 × 13
   race_year_id event    race  city  country date       start_time participation
          <dbl> <chr>    <chr> <chr> <chr>   <date>     <time>     <chr>        
 1        64771 The Old… 100m… Hanm… New Ze… 2021-05-14 10:00      solo         
 2        71220 Run Lov… 100M  <NA>  United… 2021-02-26 00:00      solo         
 3        67160 IDAHO M… 100 … <NA>  United… 2020-09-12 00:00      solo         
 4        67713 Pine cr… 100M… Well… PA, Un… 2020-09-12 00:00      solo         
 5        51777 Chiemga… 100 … Berg… Germany 2020-07-31 13:00      Solo         
 6        66413 Palisad… Moos… Irwin United… 2020-07-17 05:00      solo         
 7        62593 Run Lov… 100M  <NA>  United… 2020-02-28 00:00      solo         
 8        50097 The Gre… The … Hanm… New Ze… 2020-01-17 07:00      solo         
 9        65861 Loup Ga… 100M  Vill… LA, Un… 2019-12-14 00:00      solo         
10        59415 RIO DEL… 100 … <NA>  United… 2019-11-07 00:00      solo         
# ℹ 64 more rows
# ℹ 5 more variables: distance <dbl>, elevation_gain <dbl>,
#   elevation_loss <dbl>, aid_stations <dbl>, participants <dbl>

What is the distribution of finishing times for race distance around 150?

For all races that have a distance around 150, what is the distribution of finishing times? Can these be split/facetted using start_time of the race (i.e. morning / evening) ?

race_times <- race_df %>%
  count(start_time) %>%
  arrange(desc(n))
race_times

# A tibble: 39 × 2
   start_time     n
   <time>     <int>
 1 00:00        513
 2 06:00        114
 3 08:00         63
 4 10:00         60
 5 07:00         58
 6 18:00         50
 7 05:00         48
 8 12:00         38
 9 04:00         30
10 09:00         27
# ℹ 29 more rows
…
pop <- read_delim(file = "../../Data/populations.csv", delim = "," )

Rows: 16400 Columns: 4
── Column specification ────────────────────────────────────────────────────────
Delimiter: ","
chr (2): country_code, country_name
dbl (2): year, value

ℹ Use `spec()` to retrieve the full column specification for this data.
ℹ Specify the column types or set `show_col_types = FALSE` to quiet this message.

pop

# A tibble: 16,400 × 4
   country_code country_name  year value
   <chr>        <chr>        <dbl> <dbl>
 1 ABW          Aruba         1960 54608
 2 ABW          Aruba         1961 55811
 3 ABW          Aruba         1962 56682
 4 ABW          Aruba         1963 57475
 5 ABW          Aruba         1964 58178
 6 ABW          Aruba         1965 58782
 7 ABW          Aruba         1966 59291
 8 ABW          Aruba         1967 59522
 9 ABW          Aruba         1968 59471
10 ABW          Aruba         1969 59330
# ℹ 16,390 more rows
…
WE <- read_delim(file = "../../Data/SLID.csv", delim = "," )

Rows: 7425 Columns: 6
── Column specification ────────────────────────────────────────────────────────
Delimiter: ","
chr (2): sex, language
dbl (4): rownames, wages, education, age

ℹ Use `spec()` to retrieve the full column specification for this data.
ℹ Specify the column types or set `show_col_types = FALSE` to quiet this message.

WE

# A tibble: 7,425 × 6
   rownames wages education   age sex    language
      <dbl> <dbl>     <dbl> <dbl> <chr>  <chr>   
 1        1  10.6      15      40 Male   English 
 2        2  11        13.2    19 Male   English 
 3        3  NA        16      49 Male   Other   
 4        4  17.8      14      46 Male   Other   
 5        5  NA         8      71 Male   English 
 6        6  14        16      50 Female English 
 7        7  NA        12      70 Female English 
 8        8  NA        14.5    42 Female English 
 9        9   8.2      15      31 Male   English 
10       10  NA        10      56 Female English 
# ℹ 7,415 more rows
…
