Grades – Anusha’s_Blog
…
grade <- read_csv("../../Data/grade.csv")

Rows: 90 Columns: 7
── Column specification ────────────────────────────────────────────────────────
Delimiter: ","
chr (4): Degree, Course, Letter Grade, Gender
dbl (3): SN, Year, Score

ℹ Use `spec()` to retrieve the full column specification for this data.
ℹ Specify the column types or set `show_col_types = FALSE` to quiet this message.

grade

# A tibble: 90 × 7
      SN Degree Course  Year `Letter Grade` Score Gender
   <dbl> <chr>  <chr>  <dbl> <chr>          <dbl> <chr> 
 1     1 B.Des  CAC        2 A                8   F     
 2     2 B.Des  CAC        2 O                9.6 F     
 3     3 B.Des  IADP       2 A+               9.2 F     
 4     4 B.Des  CE         2 O                9.8 F     
 5     5 B.Des  BSSD       2 P                3   M     
 6     6 B.Des  CAC        2 O                9.5 F     
 7     7 B.Des  PSD        2 A+               9   F     
 8     8 B.Des  PSD        2 A+               9   F     
 9     9 B.Des  PSD        2 A+               9   F     
10    10 B.Des  BSSD       3 A+               9   F     
# ℹ 80 more rows
…
We perform the permutation for 4999 samples and calculate the F-stat for each of those samples.

null_dist_infer <- grade2 %>%
  specify(Score ~ Degree) %>%
  hypothesise(null = "independence") %>%
  generate(reps = 4999, type = "permute") %>%
  calculate(stat = "F")
##
null_dist_infer

Response: Score (numeric)
Explanatory: Degree (factor)
Null Hypothesis: independence
# A tibble: 4,999 × 2
   replicate   stat
       <int>  <dbl>
 1         1 1.94  
 2         2 0.554 
 3         3 0.0740
 4         4 0.735 
 5         5 0.495 
 6         6 1.12  
 7         7 0.801 
 8         8 0.264 
 9         9 0.434 
10        10 1.82  
# ℹ 4,989 more rows
…
