Pocket-Money – Anusha’s_Blog
…
money <- read_csv("../../Data/PocketMoney.csv")

New names:
Rows: 82 Columns: 5
── Column specification
──────────────────────────────────────────────────────── Delimiter: "," chr
(2): Name, Gender dbl (2): Sr no, Money_spent lgl (1): ...5
ℹ Use `spec()` to retrieve the full column specification for this data. ℹ
Specify the column types or set `show_col_types = FALSE` to quiet this message.
• `` -> `...5`

money

# A tibble: 82 × 5
   `Sr no` Name     Gender Money_spent ...5 
     <dbl> <chr>    <chr>        <dbl> <lgl>
 1       1 Aagam    Male           150 NA   
 2       2 Aakash   Male           240 NA   
 3       3 Aarushi  Female         382 NA   
 4       4 Abheeta  Female          60 NA   
 5       5 Adithya  Male            68 NA   
 6       6 Aditya   Male           300 NA   
 7       7 Akanksha Female         270 NA   
 8       8 Amruta   Female         190 NA   
 9       9 Anaaya   Female         300 NA   
10      10 Anish    Male             0 NA   
# ℹ 72 more rows
…
By fitting a normal distribution, we can visually assess how closely the data resembles a normal distribution. This is useful when considering whether parametric tests like t-tests are appropriate for our data analysis.

Looking at this graph, we can assume that the distribution does not seem normal.

Check for Normality

First, let’s separate the two genders and call each group Female and Male, and then perform a normality test (shapiro test) for each of them.

money %>% 
  filter(Gender == "Female") %>% 
  select(Money_spent) -> Female
Female

# A tibble: 41 × 1
   Money_spent
         <dbl>
 1         382
 2          60
 3         270
 4         190
 5         300
 6          85
 7         700
 8         140
 9        1070
10        1200
# ℹ 31 more rows

money %>% 
  filter(Gender == "Male") %>% 
  select(Money_spent) -> Male
Male

# A tibble: 41 × 1
   Money_spent
         <dbl>
 1         150
 2         240
 3          68
 4         300
 5           0
 6         250
 7        1143
 8         100
 9       10000
10        1433
# ℹ 31 more rows
…
