Inference for Comparing Two Paired Means – Anusha’s_Blog
…
Converting into long form:

Diving2017_long <- Diving2017 %>%
  pivot_longer(
    cols = c(Final, Semifinal),
    names_to = "race",
    values_to = "scores"
  )
Diving2017_long

# A tibble: 24 × 4
   Name               Country     race      scores
   <fct>              <fct>       <chr>      <dbl>
 1 "CHEONG Jun Hoong" Malaysia    Final       398.
 2 "CHEONG Jun Hoong" Malaysia    Semifinal   326.
 3 " SI Yajie"        China       Final       396 
 4 " SI Yajie"        China       Semifinal   383.
 5 "REN Qian"         China       Final       392.
 6 "REN Qian"         China       Semifinal   368.
 7 "KIM Mi Rae"       North Korea Final       386.
 8 "KIM Mi Rae"       North Korea Semifinal   346 
 9 "WU Melissa"       Australia   Final       370.
10 "WU Melissa"       Australia   Semifinal   319.
# ℹ 14 more rows
…
Let is import and read this data set.

frogs_orig <- read_csv("../../Data/frogs.csv")

Rows: 60 Columns: 4
── Column specification ────────────────────────────────────────────────────────
Delimiter: ","
dbl (4): Frogspawn sample id, Temperature13, Temperature18, Temperature25

ℹ Use `spec()` to retrieve the full column specification for this data.
ℹ Specify the column types or set `show_col_types = FALSE` to quiet this message.

frogs_orig

# A tibble: 60 × 4
   `Frogspawn sample id` Temperature13 Temperature18 Temperature25
                   <dbl>         <dbl>         <dbl>         <dbl>
 1                     1            24            NA            NA
 2                     2            NA            21            NA
 3                     3            NA            NA            18
 4                     4            26            NA            NA
 5                     5            NA            22            NA
 6                     6            NA            NA            14
 7                     7            27            NA            NA
 8                     8            NA            22            NA
 9                     9            NA            NA            15
10                    10            27            NA            NA
# ℹ 50 more rows
…
    # knock off the unnecessary "Temperature" word
    # Just keep the digits thereafter
    patterns = c("Temperature", TempFac = "\\d+"),
    cols_remove = TRUE
  ) %>%
  # Convert Temp into TempFac, a 3-level factor
  mutate(TempFac = factor(
    x = TempFac,
    levels = c(13, 18, 25),
    labels = c("13", "18", "25")
  )) %>%
  rename("Id" = `Frogspawn sample id`) -> frogs_long
frogs_long

# A tibble: 60 × 3
      Id TempFac  Time
   <dbl> <fct>   <dbl>
 1     1 13         24
 2     2 18         21
 3     3 25         18
 4     4 13         26
 5     5 18         22
 6     6 25         14
 7     7 13         27
 8     8 18         22
 9     9 25         15
10    10 13         27
# ℹ 50 more rows
…
